designs/design1a/modules/dump.vcd
$date
	Fri Dec  8 15:25:42 2023
$end
$version
	Icarus Verilog
$end
$timescale
	1ps
$end
$scope module test_cpu $end
$var wire 32 ! cache_data [31:0] $end
$var wire 1 " clk $end
$var wire 32 # data [31:0] $end
$var wire 1 $ found $end
$var wire 32 % ALU_Out [31:0] $end
$var reg 32 & A [31:0] $end
$var reg 32 ' AC [31:0] $end
$var reg 3 ( ALU_Sel [2:0] $end
$var reg 32 ) B [31:0] $end
$var reg 32 * IR [31:0] $end
$var reg 26 + MAR [25:0] $end
$var reg 32 , MBR [31:0] $end
$var reg 32 - PC [31:0] $end
$var reg 32 . cache_reg [31:0] $end
$var reg 1 / coe $end
$var reg 1 0 cs $end
$var reg 1 1 cwe $end
$var reg 1 2 oe $end
$var reg 1 3 osc $end
$var reg 32 4 testbench_data [31:0] $end
$var reg 1 5 we $end
$var integer 32 6 fib [31:0] $end
$var integer 32 7 i [31:0] $end
$scope module alu16 $end
$var wire 32 8 A [31:0] $end
$var wire 32 9 ALU_Out [31:0] $end
$var wire 3 : ALU_Sel [2:0] $end
$var wire 32 ; B [31:0] $end
$var reg 32 < ALU_Result [31:0] $end
$upscope $end
$scope module ram $end
$var wire 26 = addr [25:0] $end
$var wire 1 " clk $end
$var wire 1 0 cs_input $end
$var wire 32 > data [31:0] $end
$var wire 1 2 oe $end
$var wire 1 5 we $end
$var wire 4 ? cs [3:0] $end
$scope module dec $end
$var wire 2 @ in [1:0] $end
$var wire 4 A out [3:0] $end
$upscope $end
$scope module u00 $end
$var wire 24 B addr [23:0] $end
$var wire 1 " clk $end
$var wire 1 C cs $end
$var wire 16 D data [15:0] $end
$var wire 1 2 oe $end
$var wire 1 5 we $end
$var reg 16 E tmp_data [15:0] $end
$upscope $end
$scope module u01 $end
$var wire 24 F addr [23:0] $end
$var wire 1 " clk $end
$var wire 1 G cs $end
$var wire 16 H data [15:0] $end
$var wire 1 2 oe $end
$var wire 1 5 we $end
$var reg 16 I tmp_data [15:0] $end
$upscope $end
$scope module u10 $end
$var wire 24 J addr [23:0] $end
$var wire 1 " clk $end
$var wire 1 K cs $end
$var wire 16 L data [15:0] $end
$var wire 1 2 oe $end
$var wire 1 5 we $end
$var reg 16 M tmp_data [15:0] $end
$upscope $end
$scope module u11 $end
$var wire 24 N addr [23:0] $end
$var wire 1 " clk $end
$var wire 1 O cs $end
$var wire 16 P data [15:0] $end
$var wire 1 2 oe $end
$var wire 1 5 we $end
$var reg 16 Q tmp_data [15:0] $end
$upscope $end
$scope module u20 $end
$var wire 24 R addr [23:0] $end
$var wire 1 " clk $end
$var wire 1 S cs $end
$var wire 16 T data [15:0] $end
$var wire 1 2 oe $end
$var wire 1 5 we $end
$var reg 16 U tmp_data [15:0] $end
$upscope $end
$scope module u21 $end
$var wire 24 V addr [23:0] $end
$var wire 1 " clk $end
$var wire 1 W cs $end
$var wire 16 X data [15:0] $end
$var wire 1 2 oe $end
$var wire 1 5 we $end
$var reg 16 Y tmp_data [15:0] $end
$upscope $end
$scope module u30 $end
$var wire 24 Z addr [23:0] $end
$var wire 1 " clk $end
$var wire 1 [ cs $end
$var wire 16 \ data [15:0] $end
$var wire 1 2 oe $end
$var wire 1 5 we $end
$var reg 16 ] tmp_data [15:0] $end
$upscope $end
$scope module u31 $end
$var wire 24 ^ addr [23:0] $end
$var wire 1 " clk $end
$var wire 1 _ cs $end
$var wire 16 ` data [15:0] $end
$var wire 1 2 oe $end
$var wire 1 5 we $end
$var reg 16 a tmp_data [15:0] $end
$upscope $end
$upscope $end
$scope module the_cache $end
$var wire 1 " clk $end
$var wire 32 b data [31:0] $end
$var wire 1 / oe $end
$var wire 1 1 we $end
$var wire 1 $ found $end
$var reg 1 $ temp_found $end
$var reg 32 c tmp_data [31:0] $end
$upscope $end
$upscope $end
$enddefinitions $end
#0
$dumpvars
bx c
bx b
bx a
bx `
x_
bx ^
bx ]
bx \
x[
bx Z
bx Y
bx X
xW
bx V
bx U
bx T
xS
bx R
bx Q
bx P
xO
bx N
bx M
bx L
xK
bx J
bx I
bx H
xG
bx F
bx E
bx D
xC
bx B
bx A
bx @
bx ?
bx >
bx =
bx <
bx ;
bx :
bx 9
bx 8
bx 7
b1 6
x5
bx 4
13
x2
x1
x0
x/
bx .
b100000000 -
b0 ,
bx +
b0 *
bx )
bx (
b0 '
bx &
bx %
x$
bx #
1"
bx !
$end
#44000
0"
03
#88000
b0 @
b100000000 B
b100000000 F
b100000000 J
b100000000 N
b100000000 R
b100000000 V
b100000000 Z
b100000000 ^
b10000000000000000000100011110 4
02
10
15
b100000000 +
b100000000 =
1"
13
#89000
0_
0[
0W
0S
0O
0K
1G
1C
b1 ?
b1 A
#132000
0"
03
#176000
b100000010 B
b100000010 F
b100000010 J
b100000010 N
b100000010 R
b100000010 V
b100000010 Z
b100000010 ^
b100100000 4
b100000010 +
b100000010 =
1"
13
#220000
0"
03
#264000
b100000100 B
b100000100 F
b100000100 J
b100000100 N
b100000100 R
b100000100 V
b100000100 Z
b100000100 ^
b11000000000000000000100011100 4
b100000100 +
b100000100 =
1"
13
#308000
0"
03
#352000
b100000110 B
b100000110 F
b100000110 J
b100000110 N
b100000110 R
b100000110 V
b100000110 Z
b100000110 ^
b10000000000000000000100100000 4
b100000110 +
b100000110 =
1"
13
#396000
0"
03
#440000
b100001000 B
b100001000 F
b100001000 J
b100001000 N
b100001000 R
b100001000 V
b100001000 Z
b100001000 ^
b11000000000000000000100011110 4
b100001000 +
b100001000 =
1"
13
#484000
0"
03
#528000
b100001010 B
b100001010 F
b100001010 J
b100001010 N
b100001010 R
b100001010 V
b100001010 Z
b100001010 ^
b10000000000000000000100011100 4
b100001010 +
b100001010 =
1"
13
#572000
0"
03
#616000
b100001100 B
b100001100 F
b100001100 J
b100001100 N
b100001100 R
b100001100 V
b100001100 Z
b100001100 ^
b11000000000000000000100100000 4
b100001100 +
b100001100 =
1"
13
#660000
0"
03
#704000
b100001110 B
b100001110 F
b100001110 J
b100001110 N
b100001110 R
b100001110 V
b100001110 Z
b100001110 ^
b10000000000000000000100011010 4
b100001110 +
b100001110 =
1"
13
#748000
0"
03
#792000
b100010000 B
b100010000 F
b100010000 J
b100010000 N
b100010000 R
b100010000 V
b100010000 Z
b100010000 ^
b10111000000000000000000000000001 4
b100010000 +
b100010000 =
1"
13
#836000
0"
03
#880000
b100010010 B
b100010010 F
b100010010 J
b100010010 N
b100010010 R
b100010010 V
b100010010 Z
b100010010 ^
b11000000000000000000100011010 4
b100010010 +
b100010010 =
1"
13
#924000
0"
03
#968000
b100010100 B
b100010100 F
b100010100 J
b100010100 N
b100010100 R
b100010100 V
b100010100 Z
b100010100 ^
b101000000000000000010000000000 4
b100010100 +
b100010100 =
1"
13
#1012000
0"
03
#1056000
b100010110 B
b100010110 F
b100010110 J
b100010110 N
b100010110 R
b100010110 V
b100010110 Z
b100010110 ^
b110000000000000000000100000000 4
b100010110 +
b100010110 =
1"
13
#1100000
0"
03
#1144000
b100011000 B
b100011000 F
b100011000 J
b100011000 N
b100011000 R
b100011000 V
b100011000 Z
b100011000 ^
b1000000000000000000000000000 4
b100011000 +
b100011000 =
1"
13
#1188000
0"
03
#1232000
b100011010 B
b100011010 F
b100011010 J
b100011010 N
b100011010 R
b100011010 V
b100011010 Z
b100011010 ^
b1111000000000000000000000001001 4
b100011010 +
b100011010 =
1"
13
#1276000
0"
03
#1320000
b100011100 B
b100011100 F
b100011100 J
b100011100 N
b100011100 R
b100011100 V
b100011100 Z
b100011100 ^
b1111000000000000000000000000000 4
b100011100 +
b100011100 =
1"
13
#1364000
0"
03
#1408000
b100011110 B
b100011110 F
b100011110 J
b100011110 N
b100011110 R
b100011110 V
b100011110 Z
b100011110 ^
b100011110 +
b100011110 =
1"
13
#1452000
0"
03
#1496000
b100100000 B
b100100000 F
b100100000 J
b100100000 N
b100100000 R
b100100000 V
b100100000 Z
b100100000 ^
b1111000000000000000000000000001 4
b100100000 +
b100100000 =
1"
13
#1540000
0"
03
#1584000
b0 7
1"
13
#1628000
0"
03
#1672000
b100000000 B
b100000000 F
b100000000 J
b100000000 N
b100000000 R
b100000000 V
b100000000 Z
b100000000 ^
12
05
b100000000 +
b100000000 =
1"
13
#1716000
0"
03
#1760000
bx *
1"
13
#1804000
0"
03
#1848000
b100000010 -
b1 7
1"
13
#1892000
0"
03
#1936000
b100000010 B
b100000010 F
b100000010 J
b100000010 N
b100000010 R
b100000010 V
b100000010 Z
b100000010 ^
b100000010 +
b100000010 =
1"
13
#1980000
0"
03
#2024000
1"
13
#2068000
0"
03
#2112000
b100000100 -
b10 7
1"
13
#2156000
0"
03
#2200000
b100000100 B
b100000100 F
b100000100 J
b100000100 N
b100000100 R
b100000100 V
b100000100 Z
b100000100 ^
b100000100 +
b100000100 =
1"
13
#2244000
0"
03
#2288000
1"
13
#2332000
0"
03
#2376000
b100000110 -
b11 7
1"
13
#2420000
0"
03
#2464000
b100000110 B
b100000110 F
b100000110 J
b100000110 N
b100000110 R
b100000110 V
b100000110 Z
b100000110 ^
b100000110 +
b100000110 =
1"
13
#2508000
0"
03
#2552000
1"
13
#2596000
0"
03
#2640000
b100001000 -
b100 7
1"
13
#2684000
0"
03
#2728000
b100001000 B
b100001000 F
b100001000 J
b100001000 N
b100001000 R
b100001000 V
b100001000 Z
b100001000 ^
b100001000 +
b100001000 =
1"
13
#2772000
0"
03
#2816000
1"
13
#2860000
0"
03
#2904000
b100001010 -
b101 7
1"
13
#2948000
0"
03
#2992000
b100001010 B
b100001010 F
b100001010 J
b100001010 N
b100001010 R
b100001010 V
b100001010 Z
b100001010 ^
b100001010 +
b100001010 =
1"
13
#3036000
0"
03
#3080000
1"
13
#3124000
0"
03
#3168000
b100001100 -
b110 7
1"
13
#3212000
0"
03
#3256000
b100001100 B
b100001100 F
b100001100 J
b100001100 N
b100001100 R
b100001100 V
b100001100 Z
b100001100 ^
b100001100 +
b100001100 =
1"
13
#3300000
0"
03
#3344000
1"
13
#3388000
0"
03
#3432000
b100001110 -
b111 7
1"
13
#3476000
0"
03
#3520000
b100001110 B
b100001110 F
b100001110 J
b100001110 N
b100001110 R
b100001110 V
b100001110 Z
b100001110 ^
b100001110 +
b100001110 =
1"
13
#3564000
0"
03
#3608000
1"
13
#3652000
0"
03
#3696000
b100010000 -
b1000 7
1"
13
#3740000
0"
03
#3784000
b100010000 B
b100010000 F
b100010000 J
b100010000 N
b100010000 R
b100010000 V
b100010000 Z
b100010000 ^
b100010000 +
b100010000 =
1"
13
#3828000
0"
03
#3872000
1"
13
#3916000
0"
03
#3960000
b100010010 -
b1001 7
1"
13
#4004000
0"
03
#4048000
b100010010 B
b100010010 F
b100010010 J
b100010010 N
b100010010 R
b100010010 V
b100010010 Z
b100010010 ^
b100010010 +
b100010010 =
1"
13
#4092000
0"
03
#4136000
1"
13
#4180000
0"
03
#4224000
b100010100 -
b1010 7
1"
13
#4268000
0"
03
#4312000
b100010100 B
b100010100 F
b100010100 J
b100010100 N
b100010100 R
b100010100 V
b100010100 Z
b100010100 ^
b100010100 +
b100010100 =
1"
13
#4356000
0"
03
#4400000
1"
13
#4444000
0"
03
#4488000
b100010110 -
b1011 7
1"
13
#4532000
0"
03
#4576000
b100010110 B
b100010110 F
b100010110 J
b100010110 N
b100010110 R
b100010110 V
b100010110 Z
b100010110 ^
b100010110 +
b100010110 =
1"
13
#4620000
0"
03
#4664000
1"
13
#4708000
0"
03
#4752000
b100011000 -
b1100 7
1"
13
#4796000
0"
03
#4840000
b100011000 B
b100011000 F
b100011000 J
b100011000 N
b100011000 R
b100011000 V
b100011000 Z
b100011000 ^
b100011000 +
b100011000 =
1"
13
#4884000
0"
03
#4928000
1"
13
#4972000
0"
03
#5016000
b100011010 -
b1101 7
1"
13
#5060000
0"
03
#5104000
b100011010 B
b100011010 F
b100011010 J
b100011010 N
b100011010 R
b100011010 V
b100011010 Z
b100011010 ^
b100011010 +
b100011010 =
1"
13
#5148000
0"
03
#5192000
1"
13
#5236000
0"
03
#5280000
b100011100 -
b1110 7
1"
13
#5324000
0"
03
#5368000
b100011100 B
b100011100 F
b100011100 J
b100011100 N
b100011100 R
b100011100 V
b100011100 Z
b100011100 ^
b100011100 +
b100011100 =
1"
13
#5412000
0"
03
#5456000
1"
13
#5500000
0"
03
#5544000
b100011110 -
b1111 7
1"
13
#5588000
0"
03
#5632000
b100011110 B
b100011110 F
b100011110 J
b100011110 N
b100011110 R
b100011110 V
b100011110 Z
b100011110 ^
b100011110 +
b100011110 =
1"
13
#5676000
0"
03
#5720000
1"
13
#5764000
0"
03
#5808000
b100100000 -
b10000 7
1"
13
#5852000
0"
03
#5896000
b100100000 B
b100100000 F
b100100000 J
b100100000 N
b100100000 R
b100100000 V
b100100000 Z
b100100000 ^
b100100000 +
b100100000 =
1"
13
#5940000
0"
03
#5984000
1"
13
#6028000
0"
03
#6072000
b100100010 -
b10001 7
1"
13
#6116000
0"
03
#6160000
b100100010 B
b100100010 F
b100100010 J
b100100010 N
b100100010 R
b100100010 V
b100100010 Z
b100100010 ^
b100100010 +
b100100010 =
1"
13
#6204000
0"
03
#6248000
1"
13
#6292000
0"
03
#6336000
b100100100 -
b10010 7
1"
13
#6380000
0"
03
#6424000
b100100100 B
b100100100 F
b100100100 J
b100100100 N
b100100100 R
b100100100 V
b100100100 Z
b100100100 ^
b100100100 +
b100100100 =
1"
13
#6468000
0"
03
#6512000
1"
13
#6556000
0"
03
#6600000
b100100110 -
b10011 7
1"
13
#6644000
0"
03
#6688000
b100100110 B
b100100110 F
b100100110 J
b100100110 N
b100100110 R
b100100110 V
b100100110 Z
b100100110 ^
b100100110 +
b100100110 =
1"
13
#6732000
0"
03
#6776000
1"
13
#6820000
0"
03
#6864000
b100101000 -
b10100 7
1"
13
#6908000
0"
03
#6952000
b100101000 B
b100101000 F
b100101000 J
b100101000 N
b100101000 R
b100101000 V
b100101000 Z
b100101000 ^
b100101000 +
b100101000 =
1"
13
#6996000
0"
03
#7040000
1"
13
#7084000
0"
03
#7128000
b100101010 -
b10101 7
1"
13
#7172000
0"
03
#7216000
b100101010 B
b100101010 F
b100101010 J
b100101010 N
b100101010 R
b100101010 V
b100101010 Z
b100101010 ^
b100101010 +
b100101010 =
1"
13
#7260000
0"
03
#7304000
1"
13
#7348000
0"
03
#7392000
b100101100 -
b10110 7
1"
13
#7436000
0"
03
#7480000
b100101100 B
b100101100 F
b100101100 J
b100101100 N
b100101100 R
b100101100 V
b100101100 Z
b100101100 ^
b100101100 +
b100101100 =
1"
13
#7524000
0"
03
#7568000
1"
13
#7612000
0"
03
#7656000
b100101110 -
b10111 7
1"
13
#7700000
0"
03
#7744000
b100101110 B
b100101110 F
b100101110 J
b100101110 N
b100101110 R
b100101110 V
b100101110 Z
b100101110 ^
b100101110 +
b100101110 =
1"
13
#7788000
0"
03
#7832000
1"
13
#7876000
0"
03
#7920000
b100110000 -
b11000 7
1"
13
#7964000
0"
03
#8008000
b100110000 B
b100110000 F
b100110000 J
b100110000 N
b100110000 R
b100110000 V
b100110000 Z
b100110000 ^
b100110000 +
b100110000 =
1"
13
#8052000
0"
03
#8096000
1"
13
#8140000
0"
03
#8184000
b100110010 -
b11001 7
1"
13
#8228000
0"
03
#8272000
b100110010 B
b100110010 F
b100110010 J
b100110010 N
b100110010 R
b100110010 V
b100110010 Z
b100110010 ^
b100110010 +
b100110010 =
1"
13
#8316000
0"
03
#8360000
1"
13
#8404000
0"
03
#8448000
b100110100 -
b11010 7
1"
13
#8492000
0"
03
#8536000
b100110100 B
b100110100 F
b100110100 J
b100110100 N
b100110100 R
b100110100 V
b100110100 Z
b100110100 ^
b100110100 +
b100110100 =
1"
13
#8580000
0"
03
#8624000
1"
13
#8668000
0"
03
#8712000
b100110110 -
b11011 7
1"
13
#8756000
0"
03
#8800000
b100110110 B
b100110110 F
b100110110 J
b100110110 N
b100110110 R
b100110110 V
b100110110 Z
b100110110 ^
b100110110 +
b100110110 =
1"
13
#8844000
0"
03
#8888000
1"
13
#8932000
0"
03
#8976000
b100111000 -
b11100 7
1"
13
#9020000
0"
03
#9064000
b100111000 B
b100111000 F
b100111000 J
b100111000 N
b100111000 R
b100111000 V
b100111000 Z
b100111000 ^
b100111000 +
b100111000 =
1"
13
#9108000
0"
03
#9152000
1"
13
#9196000
0"
03
#9240000
b100111010 -
b11101 7
1"
13
#9284000
0"
03
#9328000
b100111010 B
b100111010 F
b100111010 J
b100111010 N
b100111010 R
b100111010 V
b100111010 Z
b100111010 ^
b100111010 +
b100111010 =
1"
13
#9372000
0"
03
#9416000
1"
13
#9460000
0"
03
#9504000
b100111100 -
b11110 7
1"
13
#9548000
0"
03
#9592000
b100111100 B
b100111100 F
b100111100 J
b100111100 N
b100111100 R
b100111100 V
b100111100 Z
b100111100 ^
b100111100 +
b100111100 =
1"
13
#9636000
0"
03
#9680000
1"
13
#9724000
0"
03
#9768000
b100111110 -
b11111 7
1"
13
#9812000
0"
03
#9856000
b100111110 B
b100111110 F
b100111110 J
b100111110 N
b100111110 R
b100111110 V
b100111110 Z
b100111110 ^
b100111110 +
b100111110 =
1"
13
#9900000
0"
03
#9944000
1"
13
#9988000
0"
03
#10032000
b101000000 -
b100000 7
1"
13
#10076000
0"
03
#10120000
b101000000 B
b101000000 F
b101000000 J
b101000000 N
b101000000 R
b101000000 V
b101000000 Z
b101000000 ^
b101000000 +
b101000000 =
1"
13
#10164000
0"
03
#10208000
1"
13
#10252000
0"
03
#10296000
b101000010 -
b100001 7
1"
13
#10340000
0"
03
#10384000
b101000010 B
b101000010 F
b101000010 J
b101000010 N
b101000010 R
b101000010 V
b101000010 Z
b101000010 ^
b101000010 +
b101000010 =
1"
13
#10428000
0"
03
#10472000
1"
13
#10516000
0"
03
#10560000
b101000100 -
b100010 7
1"
13
#10604000
0"
03
#10648000
b101000100 B
b101000100 F
b101000100 J
b101000100 N
b101000100 R
b101000100 V
b101000100 Z
b101000100 ^
b101000100 +
b101000100 =
1"
13
#10692000
0"
03
#10736000
1"
13
#10780000
0"
03
#10824000
b101000110 -
b100011 7
1"
13
#10868000
0"
03
#10912000
b101000110 B
b101000110 F
b101000110 J
b101000110 N
b101000110 R
b101000110 V
b101000110 Z
b101000110 ^
b101000110 +
b101000110 =
1"
13
#10956000
0"
03
#11000000
1"
13
#11044000
0"
03
#11088000
b101001000 -
b100100 7
1"
13
#11132000
0"
03
#11176000
b101001000 B
b101001000 F
b101001000 J
b101001000 N
b101001000 R
b101001000 V
b101001000 Z
b101001000 ^
b101001000 +
b101001000 =
1"
13
#11220000
0"
03
#11264000
1"
13
#11308000
0"
03
#11352000
b101001010 -
b100101 7
1"
13
#11396000
0"
03
#11440000
b101001010 B
b101001010 F
b101001010 J
b101001010 N
b101001010 R
b101001010 V
b101001010 Z
b101001010 ^
b101001010 +
b101001010 =
1"
13
#11484000
0"
03
#11528000
1"
13
#11572000
0"
03
#11616000
b101001100 -
b100110 7
1"
13
#11660000
0"
03
#11704000
b101001100 B
b101001100 F
b101001100 J
b101001100 N
b101001100 R
b101001100 V
b101001100 Z
b101001100 ^
b101001100 +
b101001100 =
1"
13
#11748000
0"
03
#11792000
1"
13
#11836000
0"
03
#11880000
b101001110 -
b100111 7
1"
13
#11924000
0"
03
#11968000
b101001110 B
b101001110 F
b101001110 J
b101001110 N
b101001110 R
b101001110 V
b101001110 Z
b101001110 ^
b101001110 +
b101001110 =
1"
13
#12012000
0"
03
#12056000
1"
13
#12100000
0"
03
#12144000
b101010000 -
b101000 7
1"
13
#12188000
0"
03
#12232000
b101010000 B
b101010000 F
b101010000 J
b101010000 N
b101010000 R
b101010000 V
b101010000 Z
b101010000 ^
b101010000 +
b101010000 =
1"
13
#12276000
0"
03
#12320000
1"
13
#12364000
0"
03
#12408000
b101010010 -
b101001 7
1"
13
#12452000
0"
03
#12496000
b101010010 B
b101010010 F
b101010010 J
b101010010 N
b101010010 R
b101010010 V
b101010010 Z
b101010010 ^
b101010010 +
b101010010 =
1"
13
#12540000
0"
03
#12584000
1"
13
#12628000
0"
03
#12672000
b101010100 -
b101010 7
1"
13
#12716000
0"
03
#12760000
b101010100 B
b101010100 F
b101010100 J
b101010100 N
b101010100 R
b101010100 V
b101010100 Z
b101010100 ^
b101010100 +
b101010100 =
1"
13
#12804000
0"
03
#12848000
1"
13
#12892000
0"
03
#12936000
b101010110 -
b101011 7
1"
13
#12980000
0"
03
#13024000
b101010110 B
b101010110 F
b101010110 J
b101010110 N
b101010110 R
b101010110 V
b101010110 Z
b101010110 ^
b101010110 +
b101010110 =
1"
13
#13068000
0"
03
#13112000
1"
13
#13156000
0"
03
#13200000
b101011000 -
b101100 7
1"
13
#13244000
0"
03
#13288000
b101011000 B
b101011000 F
b101011000 J
b101011000 N
b101011000 R
b101011000 V
b101011000 Z
b101011000 ^
b101011000 +
b101011000 =
1"
13
#13332000
0"
03
#13376000
1"
13
#13420000
0"
03
#13464000
b101011010 -
b101101 7
1"
13
#13508000
0"
03
#13552000
b101011010 B
b101011010 F
b101011010 J
b101011010 N
b101011010 R
b101011010 V
b101011010 Z
b101011010 ^
b101011010 +
b101011010 =
1"
13
#13596000
0"
03
#13640000
1"
13
#13684000
0"
03
#13728000
b101011100 -
b101110 7
1"
13
#13772000
0"
03
#13816000
b101011100 B
b101011100 F
b101011100 J
b101011100 N
b101011100 R
b101011100 V
b101011100 Z
b101011100 ^
b101011100 +
b101011100 =
1"
13
#13860000
0"
03
#13904000
1"
13
#13948000
0"
03
#13992000
b101011110 -
b101111 7
1"
13
#14036000
0"
03
#14080000
b101011110 B
b101011110 F
b101011110 J
b101011110 N
b101011110 R
b101011110 V
b101011110 Z
b101011110 ^
b101011110 +
b101011110 =
1"
13
#14124000
0"
03
#14168000
1"
13
#14212000
0"
03
#14256000
b101100000 -
b110000 7
1"
13
#14300000
0"
03
#14344000
b101100000 B
b101100000 F
b101100000 J
b101100000 N
b101100000 R
b101100000 V
b101100000 Z
b101100000 ^
b101100000 +
b101100000 =
1"
13
#14388000
0"
03
#14432000
1"
13
#14476000
0"
03
#14520000
b101100010 -
b110001 7
1"
13
#14564000
0"
03
#14608000
b101100010 B
b101100010 F
b101100010 J
b101100010 N
b101100010 R
b101100010 V
b101100010 Z
b101100010 ^
b101100010 +
b101100010 =
1"
13
#14652000
0"
03
#14696000
1"
13
#14740000
0"
03
#14784000
b101100100 -
b110010 7
1"
13
#14828000
0"
03
#14872000
b101100100 B
b101100100 F
b101100100 J
b101100100 N
b101100100 R
b101100100 V
b101100100 Z
b101100100 ^
b101100100 +
b101100100 =
1"
13
#14916000
0"
03
#14960000
1"
13
#15004000
0"
03
#15048000
b101100110 -
b110011 7
1"
13
#15092000
0"
03
#15136000
b101100110 B
b101100110 F
b101100110 J
b101100110 N
b101100110 R
b101100110 V
b101100110 Z
b101100110 ^
b101100110 +
b101100110 =
1"
13
#15180000
0"
03
#15224000
1"
13
#15268000
0"
03
#15312000
b101101000 -
b110100 7
1"
13
#15356000
0"
03
#15400000
b101101000 B
b101101000 F
b101101000 J
b101101000 N
b101101000 R
b101101000 V
b101101000 Z
b101101000 ^
b101101000 +
b101101000 =
1"
13
#15444000
0"
03
#15488000
1"
13
#15532000
0"
03
#15576000
b101101010 -
b110101 7
1"
13
#15620000
0"
03
#15664000
b101101010 B
b101101010 F
b101101010 J
b101101010 N
b101101010 R
b101101010 V
b101101010 Z
b101101010 ^
b101101010 +
b101101010 =
1"
13
#15708000
0"
03
#15752000
1"
13
#15796000
0"
03
#15840000
b101101100 -
b110110 7
1"
13
#15884000
0"
03
#15928000
b101101100 B
b101101100 F
b101101100 J
b101101100 N
b101101100 R
b101101100 V
b101101100 Z
b101101100 ^
b101101100 +
b101101100 =
1"
13
#15972000
0"
03
#16016000
1"
13
#16060000
0"
03
#16104000
b101101110 -
b110111 7
1"
13
#16148000
0"
03
#16192000
b101101110 B
b101101110 F
b101101110 J
b101101110 N
b101101110 R
b101101110 V
b101101110 Z
b101101110 ^
b101101110 +
b101101110 =
1"
13
#16236000
0"
03
#16280000
1"
13
#16324000
0"
03
#16368000
b101110000 -
b111000 7
1"
13
#16412000
0"
03
#16456000
b101110000 B
b101110000 F
b101110000 J
b101110000 N
b101110000 R
b101110000 V
b101110000 Z
b101110000 ^
b101110000 +
b101110000 =
1"
13
#16500000
0"
03
#16544000
1"
13
#16588000
0"
03
#16632000
b101110010 -
b111001 7
1"
13
#16676000
0"
03
#16720000
b101110010 B
b101110010 F
b101110010 J
b101110010 N
b101110010 R
b101110010 V
b101110010 Z
b101110010 ^
b101110010 +
b101110010 =
1"
13
#16764000
0"
03
#16808000
1"
13
#16852000
0"
03
#16896000
b101110100 -
b111010 7
1"
13
#16940000
0"
03
#16984000
b101110100 B
b101110100 F
b101110100 J
b101110100 N
b101110100 R
b101110100 V
b101110100 Z
b101110100 ^
b101110100 +
b101110100 =
1"
13
#17028000
0"
03
#17072000
1"
13
#17116000
0"
03
#17160000
b101110110 -
b111011 7
1"
13
#17204000
0"
03
#17248000
b101110110 B
b101110110 F
b101110110 J
b101110110 N
b101110110 R
b101110110 V
b101110110 Z
b101110110 ^
b101110110 +
b101110110 =
1"
13
#17292000
0"
03
#17336000
1"
13
#17380000
0"
03
#17424000
b101111000 -
b111100 7
1"
13
#17468000
0"
03
#17512000
b101111000 B
b101111000 F
b101111000 J
b101111000 N
b101111000 R
b101111000 V
b101111000 Z
b101111000 ^
b101111000 +
b101111000 =
1"
13
#17556000
0"
03
#17600000
1"
13
#17644000
0"
03
#17688000
b101111010 -
b111101 7
1"
13
#17732000
0"
03
#17776000
b101111010 B
b101111010 F
b101111010 J
b101111010 N
b101111010 R
b101111010 V
b101111010 Z
b101111010 ^
b101111010 +
b101111010 =
1"
13
#17820000
0"
03
#17864000
1"
13
#17908000
0"
03
#17952000
b101111100 -
b111110 7
1"
13
#17996000
0"
03
#18040000
b101111100 B
b101111100 F
b101111100 J
b101111100 N
b101111100 R
b101111100 V
b101111100 Z
b101111100 ^
b101111100 +
b101111100 =
1"
13
#18084000
0"
03
#18128000
1"
13
#18172000
0"
03
#18216000
b101111110 -
b111111 7
1"
13
#18260000
0"
03
#18304000
b101111110 B
b101111110 F
b101111110 J
b101111110 N
b101111110 R
b101111110 V
b101111110 Z
b101111110 ^
b101111110 +
b101111110 =
1"
13
#18348000
0"
03
#18392000
1"
13
#18436000
0"
03
#18480000
b110000000 -
b1000000 7
1"
13
#18524000
0"
03
#18568000
b110000000 B
b110000000 F
b110000000 J
b110000000 N
b110000000 R
b110000000 V
b110000000 Z
b110000000 ^
b110000000 +
b110000000 =
1"
13
#18612000
0"
03
#18656000
1"
13
#18700000
0"
03
#18744000
b110000010 -
b1000001 7
1"
13
#18788000
0"
03
#18832000
b110000010 B
b110000010 F
b110000010 J
b110000010 N
b110000010 R
b110000010 V
b110000010 Z
b110000010 ^
b110000010 +
b110000010 =
1"
13
#18876000
0"
03
#18920000
1"
13
#18964000
0"
03
#19008000
b110000100 -
b1000010 7
1"
13
#19052000
0"
03
#19096000
b110000100 B
b110000100 F
b110000100 J
b110000100 N
b110000100 R
b110000100 V
b110000100 Z
b110000100 ^
b110000100 +
b110000100 =
1"
13
#19140000
0"
03
#19184000
1"
13
#19228000
0"
03
#19272000
b110000110 -
b1000011 7
1"
13
#19316000
0"
03
#19360000
b110000110 B
b110000110 F
b110000110 J
b110000110 N
b110000110 R
b110000110 V
b110000110 Z
b110000110 ^
b110000110 +
b110000110 =
1"
13
#19404000
0"
03
#19448000
1"
13
#19492000
0"
03
#19536000
b110001000 -
b1000100 7
1"
13
#19580000
0"
03
#19624000
b110001000 B
b110001000 F
b110001000 J
b110001000 N
b110001000 R
b110001000 V
b110001000 Z
b110001000 ^
b110001000 +
b110001000 =
1"
13
#19668000
0"
03
#19712000
1"
13
#19756000
0"
03
#19800000
b110001010 -
b1000101 7
1"
13
#19844000
0"
03
#19888000
b110001010 B
b110001010 F
b110001010 J
b110001010 N
b110001010 R
b110001010 V
b110001010 Z
b110001010 ^
b110001010 +
b110001010 =
1"
13
#19932000
0"
03
#19976000
1"
13
#20020000
0"
03
#20064000
b110001100 -
b1000110 7
1"
13
#20108000
0"
03
#20152000
b110001100 B
b110001100 F
b110001100 J
b110001100 N
b110001100 R
b110001100 V
b110001100 Z
b110001100 ^
b110001100 +
b110001100 =
1"
13
#20196000
0"
03
#20240000
1"
13
#20284000
0"
03
#20328000
b110001110 -
b1000111 7
1"
13
#20372000
0"
03
#20416000
b110001110 B
b110001110 F
b110001110 J
b110001110 N
b110001110 R
b110001110 V
b110001110 Z
b110001110 ^
b110001110 +
b110001110 =
1"
13
#20460000
0"
03
#20504000
1"
13
#20548000
0"
03
#20592000
b110010000 -
b1001000 7
1"
13
#20636000
0"
03
#20680000
b110010000 B
b110010000 F
b110010000 J
b110010000 N
b110010000 R
b110010000 V
b110010000 Z
b110010000 ^
b110010000 +
b110010000 =
1"
13
#20724000
0"
03
#20768000
1"
13
#20812000
0"
03
#20856000
b110010010 -
b1001001 7
1"
13
#20900000
0"
03
#20944000
b110010010 B
b110010010 F
b110010010 J
b110010010 N
b110010010 R
b110010010 V
b110010010 Z
b110010010 ^
b110010010 +
b110010010 =
1"
13
#20988000
0"
03
#21032000
1"
13
#21076000
0"
03
#21120000
b110010100 -
b1001010 7
1"
13
#21164000
0"
03
#21208000
b110010100 B
b110010100 F
b110010100 J
b110010100 N
b110010100 R
b110010100 V
b110010100 Z
b110010100 ^
b110010100 +
b110010100 =
1"
13
#21252000
0"
03
#21296000
1"
13
#21340000
0"
03
#21384000
b110010110 -
b1001011 7
1"
13
#21428000
0"
03
