designs/design1/modules/dump.vcd
$date
	Fri Dec  8 10:09:55 2023
$end
$version
	Icarus Verilog
$end
$timescale
	1ps
$end
$scope module test_cpu $end
$var wire 1 ! clk $end
$var wire 32 " data [31:0] $end
$var wire 32 # ALU_Out [31:0] $end
$var reg 32 $ A [31:0] $end
$var reg 32 % AC [31:0] $end
$var reg 3 & ALU_Sel [2:0] $end
$var reg 32 ' B [31:0] $end
$var reg 32 ( IR [31:0] $end
$var reg 14 ) MAR [13:0] $end
$var reg 32 * MBR [31:0] $end
$var reg 32 + PC [31:0] $end
$var reg 1 , cs $end
$var reg 1 - oe $end
$var reg 1 . osc $end
$var reg 32 / testbench_data [31:0] $end
$var reg 1 0 we $end
$var integer 32 1 fib [31:0] $end
$var integer 32 2 i [31:0] $end
$scope module alu32 $end
$var wire 32 3 A [31:0] $end
$var wire 32 4 ALU_Out [31:0] $end
$var wire 3 5 ALU_Sel [2:0] $end
$var wire 32 6 B [31:0] $end
$var reg 32 7 ALU_Result [31:0] $end
$upscope $end
$scope module ram $end
$var wire 14 8 addr [13:0] $end
$var wire 1 ! clk $end
$var wire 1 , cs_input $end
$var wire 32 9 data [31:0] $end
$var wire 1 - oe $end
$var wire 1 0 we $end
$var wire 4 : cs [3:0] $end
$scope module dec $end
$var wire 2 ; in [1:0] $end
$var wire 4 < out [3:0] $end
$upscope $end
$scope module u00 $end
$var wire 12 = addr [11:0] $end
$var wire 1 ! clk $end
$var wire 1 > cs $end
$var wire 16 ? data [15:0] $end
$var wire 1 - oe $end
$var wire 1 0 we $end
$var reg 16 @ tmp_data [15:0] $end
$upscope $end
$scope module u01 $end
$var wire 12 A addr [11:0] $end
$var wire 1 ! clk $end
$var wire 1 B cs $end
$var wire 16 C data [15:0] $end
$var wire 1 - oe $end
$var wire 1 0 we $end
$var reg 16 D tmp_data [15:0] $end
$upscope $end
$scope module u10 $end
$var wire 12 E addr [11:0] $end
$var wire 1 ! clk $end
$var wire 1 F cs $end
$var wire 16 G data [15:0] $end
$var wire 1 - oe $end
$var wire 1 0 we $end
$var reg 16 H tmp_data [15:0] $end
$upscope $end
$scope module u11 $end
$var wire 12 I addr [11:0] $end
$var wire 1 ! clk $end
$var wire 1 J cs $end
$var wire 16 K data [15:0] $end
$var wire 1 - oe $end
$var wire 1 0 we $end
$var reg 16 L tmp_data [15:0] $end
$upscope $end
$scope module u20 $end
$var wire 12 M addr [11:0] $end
$var wire 1 ! clk $end
$var wire 1 N cs $end
$var wire 16 O data [15:0] $end
$var wire 1 - oe $end
$var wire 1 0 we $end
$var reg 16 P tmp_data [15:0] $end
$upscope $end
$scope module u21 $end
$var wire 12 Q addr [11:0] $end
$var wire 1 ! clk $end
$var wire 1 R cs $end
$var wire 16 S data [15:0] $end
$var wire 1 - oe $end
$var wire 1 0 we $end
$var reg 16 T tmp_data [15:0] $end
$upscope $end
$scope module u30 $end
$var wire 12 U addr [11:0] $end
$var wire 1 ! clk $end
$var wire 1 V cs $end
$var wire 16 W data [15:0] $end
$var wire 1 - oe $end
$var wire 1 0 we $end
$var reg 16 X tmp_data [15:0] $end
$upscope $end
$scope module u31 $end
$var wire 12 Y addr [11:0] $end
$var wire 1 ! clk $end
$var wire 1 Z cs $end
$var wire 16 [ data [15:0] $end
$var wire 1 - oe $end
$var wire 1 0 we $end
$var reg 16 \ tmp_data [15:0] $end
$upscope $end
$upscope $end
$upscope $end
$enddefinitions $end
#0
$dumpvars
bx \
bx [
xZ
bx Y
bx X
bx W
xV
bx U
bx T
bx S
xR
bx Q
bx P
bx O
xN
bx M
bx L
bx K
xJ
bx I
bx H
bx G
xF
bx E
bx D
bx C
xB
bx A
bx @
bx ?
x>
bx =
bx <
bx ;
bx :
bx 9
bx 8
bx 7
bx 6
bx 5
bx 4
bx 3
bx 2
b1 1
x0
bx /
1.
x-
x,
b100000000 +
b0 *
bx )
b0 (
bx '
bx &
b0 %
bx $
bx #
bx "
1!
$end
#10000
0!
0.
#20000
b100011110 ?
b1000000000000 C
b100011110 G
b1000000000000 K
b100011110 O
b1000000000000 S
b100011110 W
b1000000000000 [
b10000000000000000000100011110 "
b10000000000000000000100011110 9
b0 ;
b100000000 =
b100000000 A
b100000000 E
b100000000 I
b100000000 M
b100000000 Q
b100000000 U
b100000000 Y
b10000000000000000000100011110 /
0-
1,
10
b100000000 )
b100000000 8
1!
1.
#21000
0Z
0V
0R
0N
0J
0F
1B
1>
b1 :
b1 <
#30000
0!
0.
#40000
b100100000 ?
b0 C
b100100000 G
b0 K
b100100000 O
b0 S
b100100000 W
b0 [
b100100000 "
b100100000 9
b100000010 =
b100000010 A
b100000010 E
b100000010 I
b100000010 M
b100000010 Q
b100000010 U
b100000010 Y
b100100000 /
b100000010 )
b100000010 8
1!
1.
#50000
0!
0.
#60000
b100011100 ?
b1100000000000 C
b100011100 G
b1100000000000 K
b100011100 O
b1100000000000 S
b100011100 W
b1100000000000 [
b11000000000000000000100011100 "
b11000000000000000000100011100 9
b100000100 =
b100000100 A
b100000100 E
b100000100 I
b100000100 M
b100000100 Q
b100000100 U
b100000100 Y
b11000000000000000000100011100 /
b100000100 )
b100000100 8
1!
1.
#70000
0!
0.
#80000
b100100000 ?
b1000000000000 C
b100100000 G
b1000000000000 K
b100100000 O
b1000000000000 S
b100100000 W
b1000000000000 [
b10000000000000000000100100000 "
b10000000000000000000100100000 9
b100000110 =
b100000110 A
b100000110 E
b100000110 I
b100000110 M
b100000110 Q
b100000110 U
b100000110 Y
b10000000000000000000100100000 /
b100000110 )
b100000110 8
1!
1.
#90000
0!
0.
#100000
b100011110 ?
b1100000000000 C
b100011110 G
b1100000000000 K
b100011110 O
b1100000000000 S
b100011110 W
b1100000000000 [
b11000000000000000000100011110 "
b11000000000000000000100011110 9
b100001000 =
b100001000 A
b100001000 E
b100001000 I
b100001000 M
b100001000 Q
b100001000 U
b100001000 Y
b11000000000000000000100011110 /
b100001000 )
b100001000 8
1!
1.
#110000
0!
0.
#120000
b100011100 ?
b1000000000000 C
b100011100 G
b1000000000000 K
b100011100 O
b1000000000000 S
b100011100 W
b1000000000000 [
b10000000000000000000100011100 "
b10000000000000000000100011100 9
b100001010 =
b100001010 A
b100001010 E
b100001010 I
b100001010 M
b100001010 Q
b100001010 U
b100001010 Y
b10000000000000000000100011100 /
b100001010 )
b100001010 8
1!
1.
#130000
0!
0.
#140000
b100100000 ?
b1100000000000 C
b100100000 G
b1100000000000 K
b100100000 O
b1100000000000 S
b100100000 W
b1100000000000 [
b11000000000000000000100100000 "
b11000000000000000000100100000 9
b100001100 =
b100001100 A
b100001100 E
b100001100 I
b100001100 M
b100001100 Q
b100001100 U
b100001100 Y
b11000000000000000000100100000 /
b100001100 )
b100001100 8
1!
1.
#150000
0!
0.
#160000
b100011010 ?
b1000000000000 C
b100011010 G
b1000000000000 K
b100011010 O
b1000000000000 S
b100011010 W
b1000000000000 [
b10000000000000000000100011010 "
b10000000000000000000100011010 9
b100001110 =
b100001110 A
b100001110 E
b100001110 I
b100001110 M
b100001110 Q
b100001110 U
b100001110 Y
b10000000000000000000100011010 /
b100001110 )
b100001110 8
1!
1.
#170000
0!
0.
#180000
b100100010 ?
b11100000000000 C
b100100010 G
b11100000000000 K
b100100010 O
b11100000000000 S
b100100010 W
b11100000000000 [
b111000000000000000000100100010 "
b111000000000000000000100100010 9
b100010000 =
b100010000 A
b100010000 E
b100010000 I
b100010000 M
b100010000 Q
b100010000 U
b100010000 Y
b111000000000000000000100100010 /
b100010000 )
b100010000 8
1!
1.
#190000
0!
0.
#200000
b100011010 ?
b1100000000000 C
b100011010 G
b1100000000000 K
b100011010 O
b1100000000000 S
b100011010 W
b1100000000000 [
b11000000000000000000100011010 "
b11000000000000000000100011010 9
b100010010 =
b100010010 A
b100010010 E
b100010010 I
b100010010 M
b100010010 Q
b100010010 U
b100010010 Y
b11000000000000000000100011010 /
b100010010 )
b100010010 8
1!
1.
#210000
0!
0.
#220000
b10000000000 ?
b10100000000000 C
b10000000000 G
b10100000000000 K
b10000000000 O
b10100000000000 S
b10000000000 W
b10100000000000 [
b101000000000000000010000000000 "
b101000000000000000010000000000 9
b100010100 =
b100010100 A
b100010100 E
b100010100 I
b100010100 M
b100010100 Q
b100010100 U
b100010100 Y
b101000000000000000010000000000 /
b100010100 )
b100010100 8
1!
1.
#230000
0!
0.
#240000
b100000000 ?
b11000000000000 C
b100000000 G
b11000000000000 K
b100000000 O
b11000000000000 S
b100000000 W
b11000000000000 [
b110000000000000000000100000000 "
b110000000000000000000100000000 9
b100010110 =
b100010110 A
b100010110 E
b100010110 I
b100010110 M
b100010110 Q
b100010110 U
b100010110 Y
b110000000000000000000100000000 /
b100010110 )
b100010110 8
1!
1.
#250000
0!
0.
#260000
b0 ?
b100000000000 C
b0 G
b100000000000 K
b0 O
b100000000000 S
b0 W
b100000000000 [
b1000000000000000000000000000 "
b1000000000000000000000000000 9
b100011000 =
b100011000 A
b100011000 E
b100011000 I
b100011000 M
b100011000 Q
b100011000 U
b100011000 Y
b1000000000000000000000000000 /
b100011000 )
b100011000 8
1!
1.
#270000
0!
0.
#280000
b1001 ?
b111100000000000 C
b1001 G
b111100000000000 K
b1001 O
b111100000000000 S
b1001 W
b111100000000000 [
b1111000000000000000000000001001 "
b1111000000000000000000000001001 9
b100011010 =
b100011010 A
b100011010 E
b100011010 I
b100011010 M
b100011010 Q
b100011010 U
b100011010 Y
b1111000000000000000000000001001 /
b100011010 )
b100011010 8
1!
1.
#290000
0!
0.
#300000
b0 ?
b0 G
b0 O
b0 W
b1111000000000000000000000000000 "
b1111000000000000000000000000000 9
b100011100 =
b100011100 A
b100011100 E
b100011100 I
b100011100 M
b100011100 Q
b100011100 U
b100011100 Y
b1111000000000000000000000000000 /
b100011100 )
b100011100 8
1!
1.
#310000
0!
0.
#320000
b100011110 =
b100011110 A
b100011110 E
b100011110 I
b100011110 M
b100011110 Q
b100011110 U
b100011110 Y
b100011110 )
b100011110 8
1!
1.
#330000
0!
0.
#340000
b1 ?
b1 G
b1 O
b1 W
b1111000000000000000000000000001 "
b1111000000000000000000000000001 9
b100100000 =
b100100000 A
b100100000 E
b100100000 I
b100100000 M
b100100000 Q
b100100000 U
b100100000 Y
b1111000000000000000000000000001 /
b100100000 )
b100100000 8
1!
1.
#350000
0!
0.
#360000
b100100010 =
b100100010 A
b100100010 E
b100100010 I
b100100010 M
b100100010 Q
b100100010 U
b100100010 Y
b100100010 )
b100100010 8
1!
1.
#370000
0!
0.
#380000
b0 2
1!
1.
#390000
0!
0.
#400000
bx ?
bx C
bx G
bx K
bx O
bx S
bx W
bx [
bx "
bx 9
b100000000 =
b100000000 A
b100000000 E
b100000000 I
b100000000 M
b100000000 Q
b100000000 U
b100000000 Y
1-
00
b100000000 )
b100000000 8
1!
1.
#410000
b100011110 ?
b1000000000000 C
b100011110 G
b1000000000000 K
b100011110 O
b1000000000000 S
b100011110 W
b1000000000000 [
b10000000000000000000100011110 "
b10000000000000000000100011110 9
b100011110 @
b1000000000000 D
0!
0.
#420000
b10000000000000000000100011110 (
1!
1.
#430000
0!
0.
#440000
b100000010 +
1!
1.
#450000
0!
0.
#460000
b100011110 =
b100011110 A
b100011110 E
b100011110 I
b100011110 M
b100011110 Q
b100011110 U
b100011110 Y
b100011110 )
b100011110 8
1!
1.
#470000
b0 ?
b111100000000000 C
b0 G
b111100000000000 K
b0 O
b111100000000000 S
b0 W
b111100000000000 [
b1111000000000000000000000000000 "
b1111000000000000000000000000000 9
b111100000000000 D
b0 @
0!
0.
#480000
b1111000000000000000000000000000 *
1!
1.
#490000
0!
0.
#500000
b1111000000000000000000000000000 %
b1 2
1!
1.
#510000
0!
0.
#520000
b100000010 =
b100000010 A
b100000010 E
b100000010 I
b100000010 M
b100000010 Q
b100000010 U
b100000010 Y
b100000010 )
b100000010 8
1!
1.
#530000
b100100000 ?
b0 C
b100100000 G
b0 K
b100100000 O
b0 S
b100100000 W
b0 [
b100100000 "
b100100000 9
b100100000 @
b0 D
0!
0.
#540000
b100100000 (
1!
1.
#550000
0!
0.
#560000
b100000100 +
1!
1.
#570000
0!
0.
#580000
b100100000 =
b100100000 A
b100100000 E
b100100000 I
b100100000 M
b100100000 Q
b100100000 U
b100100000 Y
b100100000 )
b100100000 8
1!
1.
#590000
b1 ?
b111100000000000 C
b1 G
b111100000000000 K
b1 O
b111100000000000 S
b1 W
b111100000000000 [
b1111000000000000000000000000001 "
b1111000000000000000000000000001 9
b111100000000000 D
b1 @
0!
0.
#600000
b1111000000000000000000000000001 *
1!
1.
#610000
0!
0.
#620000
b11110000000000000000000000000001 #
b11110000000000000000000000000001 4
b11110000000000000000000000000001 7
b1111000000000000000000000000001 '
b1111000000000000000000000000001 6
b1111000000000000000000000000000 $
b1111000000000000000000000000000 3
b1 &
b1 5
1!
1.
#630000
0!
0.
#640000
b11110000000000000000000000000001 %
1!
1.
#650000
0!
0.
#660000
b10 1
1!
1.
#661000
b10 2
#670000
0!
0.
#680000
b100000100 =
b100000100 A
b100000100 E
b100000100 I
b100000100 M
b100000100 Q
b100000100 U
b100000100 Y
b100000100 )
b100000100 8
1!
1.
#690000
b100011100 ?
b1100000000000 C
b100011100 G
b1100000000000 K
b100011100 O
b1100000000000 S
b100011100 W
b1100000000000 [
b11000000000000000000100011100 "
b11000000000000000000100011100 9
b100011100 @
b1100000000000 D
0!
0.
#700000
b11000000000000000000100011100 (
1!
1.
#710000
0!
0.
#720000
b100000110 +
1!
1.
#730000
0!
0.
#740000
b100011100 =
b100011100 A
b100011100 E
b100011100 I
b100011100 M
b100011100 Q
b100011100 U
b100011100 Y
b100011100 )
b100011100 8
1!
1.
#750000
b0 ?
b111100000000000 C
b0 G
b111100000000000 K
b0 O
b111100000000000 S
b0 W
b111100000000000 [
b1111000000000000000000000000000 "
b1111000000000000000000000000000 9
b111100000000000 D
b0 @
0!
0.
#760000
b11110000000000000000000000000001 *
1!
1.
#770000
0!
0.
#780000
b1 ?
b1111000000000000 C
b1 G
b1111000000000000 K
b1 O
b1111000000000000 S
b1 W
b1111000000000000 [
b11110000000000000000000000000001 "
b11110000000000000000000000000001 9
b11110000000000000000000000000001 /
0-
10
b11 2
1!
1.
#790000
0!
0.
#800000
b0 ?
b111100000000000 C
b0 G
b111100000000000 K
b0 O
b111100000000000 S
b0 W
b111100000000000 [
b1111000000000000000000000000000 "
b1111000000000000000000000000000 9
b100000110 =
b100000110 A
b100000110 E
b100000110 I
b100000110 M
b100000110 Q
b100000110 U
b100000110 Y
1-
00
b100000110 )
b100000110 8
1!
1.
#810000
b100100000 ?
b1000000000000 C
b100100000 G
b1000000000000 K
b100100000 O
b1000000000000 S
b100100000 W
b1000000000000 [
b10000000000000000000100100000 "
b10000000000000000000100100000 9
b100100000 @
b1000000000000 D
0!
0.
#820000
b10000000000000000000100100000 (
1!
1.
#830000
0!
0.
#840000
b100001000 +
1!
1.
#850000
0!
0.
#860000
b100100000 =
b100100000 A
b100100000 E
b100100000 I
b100100000 M
b100100000 Q
b100100000 U
b100100000 Y
b100100000 )
b100100000 8
1!
1.
#870000
b1 ?
b111100000000000 C
b1 G
b111100000000000 K
b1 O
b111100000000000 S
b1 W
b111100000000000 [
b1111000000000000000000000000001 "
b1111000000000000000000000000001 9
b111100000000000 D
b1 @
0!
0.
#880000
b1111000000000000000000000000001 *
1!
1.
#890000
0!
0.
#900000
b1111000000000000000000000000001 %
b100 2
1!
1.
#910000
0!
0.
#920000
b100001000 =
b100001000 A
b100001000 E
b100001000 I
b100001000 M
b100001000 Q
b100001000 U
b100001000 Y
b100001000 )
b100001000 8
1!
1.
#930000
b100011110 ?
b1100000000000 C
b100011110 G
b1100000000000 K
b100011110 O
b1100000000000 S
b100011110 W
b1100000000000 [
b11000000000000000000100011110 "
b11000000000000000000100011110 9
b100011110 @
b1100000000000 D
0!
0.
#940000
b11000000000000000000100011110 (
1!
1.
#950000
0!
0.
#960000
b100001010 +
1!
1.
#970000
0!
0.
#980000
b100011110 =
b100011110 A
b100011110 E
b100011110 I
b100011110 M
b100011110 Q
b100011110 U
b100011110 Y
b100011110 )
b100011110 8
1!
1.
#990000
b0 ?
b111100000000000 C
b0 G
b111100000000000 K
b0 O
b111100000000000 S
b0 W
b111100000000000 [
b1111000000000000000000000000000 "
b1111000000000000000000000000000 9
b111100000000000 D
b0 @
0!
0.
#1000000
1!
1.
#1010000
0!
0.
#1020000
b1 ?
b1 G
b1 O
b1 W
b1111000000000000000000000000001 "
b1111000000000000000000000000001 9
b1111000000000000000000000000001 /
0-
10
b101 2
1!
1.
#1030000
0!
0.
#1040000
b0 ?
b111100000000000 C
b0 G
b111100000000000 K
b0 O
b111100000000000 S
b0 W
b111100000000000 [
b1111000000000000000000000000000 "
b1111000000000000000000000000000 9
b100001010 =
b100001010 A
b100001010 E
b100001010 I
b100001010 M
b100001010 Q
b100001010 U
b100001010 Y
1-
00
b100001010 )
b100001010 8
1!
1.
#1050000
b100011100 ?
b1000000000000 C
b100011100 G
b1000000000000 K
b100011100 O
b1000000000000 S
b100011100 W
b1000000000000 [
b10000000000000000000100011100 "
b10000000000000000000100011100 9
b100011100 @
b1000000000000 D
0!
0.
#1060000
b10000000000000000000100011100 (
1!
1.
#1070000
0!
0.
#1080000
b100001100 +
1!
1.
#1090000
0!
0.
#1100000
b100011100 =
b100011100 A
b100011100 E
b100011100 I
b100011100 M
b100011100 Q
b100011100 U
b100011100 Y
b100011100 )
b100011100 8
1!
1.
#1110000
b1 ?
b1111000000000000 C
b1 G
b1111000000000000 K
b1 O
b1111000000000000 S
b1 W
b1111000000000000 [
b11110000000000000000000000000001 "
b11110000000000000000000000000001 9
b1111000000000000 D
b1 @
0!
0.
#1120000
b11110000000000000000000000000001 *
1!
1.
#1130000
0!
0.
#1140000
b11110000000000000000000000000001 %
b110 2
1!
1.
#1150000
0!
0.
#1160000
b100001100 =
b100001100 A
b100001100 E
b100001100 I
b100001100 M
b100001100 Q
b100001100 U
b100001100 Y
b100001100 )
b100001100 8
1!
1.
#1170000
b100100000 ?
b1100000000000 C
b100100000 G
b1100000000000 K
b100100000 O
b1100000000000 S
b100100000 W
b1100000000000 [
b11000000000000000000100100000 "
b11000000000000000000100100000 9
b100100000 @
b1100000000000 D
0!
0.
#1180000
b11000000000000000000100100000 (
1!
1.
#1190000
0!
0.
#1200000
b100001110 +
1!
1.
#1210000
0!
0.
#1220000
b100100000 =
b100100000 A
b100100000 E
b100100000 I
b100100000 M
b100100000 Q
b100100000 U
b100100000 Y
b100100000 )
b100100000 8
1!
1.
#1230000
b1 ?
b111100000000000 C
b1 G
b111100000000000 K
b1 O
b111100000000000 S
b1 W
b111100000000000 [
b1111000000000000000000000000001 "
b1111000000000000000000000000001 9
b111100000000000 D
b1 @
0!
0.
#1240000
1!
1.
#1250000
0!
0.
#1260000
b1111000000000000 C
b1111000000000000 K
b1111000000000000 S
b1111000000000000 [
b11110000000000000000000000000001 "
b11110000000000000000000000000001 9
b11110000000000000000000000000001 /
0-
10
b111 2
1!
1.
#1270000
0!
0.
#1280000
b1 ?
b111100000000000 C
b1 G
b111100000000000 K
b1 O
b111100000000000 S
b1 W
b111100000000000 [
b1111000000000000000000000000001 "
b1111000000000000000000000000001 9
b100001110 =
b100001110 A
b100001110 E
b100001110 I
b100001110 M
b100001110 Q
b100001110 U
b100001110 Y
1-
00
b100001110 )
b100001110 8
1!
1.
#1290000
b100011010 ?
b1000000000000 C
b100011010 G
b1000000000000 K
b100011010 O
b1000000000000 S
b100011010 W
b1000000000000 [
b10000000000000000000100011010 "
b10000000000000000000100011010 9
b100011010 @
b1000000000000 D
0!
0.
#1300000
b10000000000000000000100011010 (
1!
1.
#1310000
0!
0.
#1320000
b100010000 +
1!
1.
#1330000
0!
0.
#1340000
b100011010 =
b100011010 A
b100011010 E
b100011010 I
b100011010 M
b100011010 Q
b100011010 U
b100011010 Y
b100011010 )
b100011010 8
1!
1.
#1350000
b1001 ?
b111100000000000 C
b1001 G
b111100000000000 K
b1001 O
b111100000000000 S
b1001 W
b111100000000000 [
b1111000000000000000000000001001 "
b1111000000000000000000000001001 9
b111100000000000 D
b1001 @
0!
0.
#1360000
b1111000000000000000000000001001 *
1!
1.
#1370000
0!
0.
#1380000
b1111000000000000000000000001001 %
b1000 2
1!
1.
#1390000
0!
0.
#1400000
b100010000 =
b100010000 A
b100010000 E
b100010000 I
b100010000 M
b100010000 Q
b100010000 U
b100010000 Y
b100010000 )
b100010000 8
1!
1.
#1410000
b100100010 ?
b11100000000000 C
b100100010 G
b11100000000000 K
b100100010 O
b11100000000000 S
b100100010 W
b11100000000000 [
b111000000000000000000100100010 "
b111000000000000000000100100010 9
b100100010 @
b11100000000000 D
0!
0.
#1420000
b111000000000000000000100100010 (
1!
1.
#1430000
0!
0.
#1440000
b100010010 +
1!
1.
#1450000
0!
0.
#1460000
b100100010 =
b100100010 A
b100100010 E
b100100010 I
b100100010 M
b100100010 Q
b100100010 U
b100100010 Y
b100100010 )
b100100010 8
1!
1.
#1470000
b1 ?
b111100000000000 C
b1 G
b111100000000000 K
b1 O
b111100000000000 S
b1 W
b111100000000000 [
b1111000000000000000000000000001 "
b1111000000000000000000000000001 9
b111100000000000 D
b1 @
0!
0.
#1480000
b1111000000000000000000000000001 *
1!
1.
#1490000
0!
0.
#1500000
b1000 #
b1000 4
b1000 7
b1111000000000000000000000001001 $
b1111000000000000000000000001001 3
b10 &
b10 5
1!
1.
#1510000
0!
0.
#1520000
b1000 %
b1001 2
1!
1.
#1530000
0!
0.
#1540000
b100010010 =
b100010010 A
b100010010 E
b100010010 I
b100010010 M
b100010010 Q
b100010010 U
b100010010 Y
b100010010 )
b100010010 8
1!
1.
#1550000
b100011010 ?
b1100000000000 C
b100011010 G
b1100000000000 K
b100011010 O
b1100000000000 S
b100011010 W
b1100000000000 [
b11000000000000000000100011010 "
b11000000000000000000100011010 9
b1100000000000 D
b100011010 @
0!
0.
#1560000
b11000000000000000000100011010 (
1!
1.
#1570000
0!
0.
#1580000
b100010100 +
1!
1.
#1590000
0!
0.
#1600000
b100011010 =
b100011010 A
b100011010 E
b100011010 I
b100011010 M
b100011010 Q
b100011010 U
b100011010 Y
b100011010 )
b100011010 8
1!
1.
#1610000
b1001 ?
b111100000000000 C
b1001 G
b111100000000000 K
b1001 O
b111100000000000 S
b1001 W
b111100000000000 [
b1111000000000000000000000001001 "
b1111000000000000000000000001001 9
b1001 @
b111100000000000 D
0!
0.
#1620000
b1000 *
1!
1.
#1630000
0!
0.
#1640000
b1000 ?
b0 C
b1000 G
b0 K
b1000 O
b0 S
b1000 W
b0 [
b1000 "
b1000 9
b1000 /
0-
10
b1010 2
1!
1.
#1650000
0!
0.
#1660000
b1001 ?
b111100000000000 C
b1001 G
b111100000000000 K
b1001 O
b111100000000000 S
b1001 W
b111100000000000 [
b1111000000000000000000000001001 "
b1111000000000000000000000001001 9
b100010100 =
b100010100 A
b100010100 E
b100010100 I
b100010100 M
b100010100 Q
b100010100 U
b100010100 Y
1-
00
b100010100 )
b100010100 8
1!
1.
#1670000
b10000000000 ?
b10100000000000 C
b10000000000 G
b10100000000000 K
b10000000000 O
b10100000000000 S
b10000000000 W
b10100000000000 [
b101000000000000000010000000000 "
b101000000000000000010000000000 9
b10100000000000 D
b10000000000 @
0!
0.
#1680000
b101000000000000000010000000000 (
1!
1.
#1690000
0!
0.
#1700000
b100010110 +
1!
1.
#1710000
0!
0.
#1720000
b1011 2
1!
1.
#1730000
0!
0.
#1740000
b100010110 =
b100010110 A
b100010110 E
b100010110 I
b100010110 M
b100010110 Q
b100010110 U
b100010110 Y
b100010110 )
b100010110 8
1!
1.
#1750000
b100000000 ?
b11000000000000 C
b100000000 G
b11000000000000 K
b100000000 O
b11000000000000 S
b100000000 W
b11000000000000 [
b110000000000000000000100000000 "
b110000000000000000000100000000 9
b11000000000000 D
b100000000 @
0!
0.
#1760000
b110000000000000000000100000000 (
1!
1.
#1770000
0!
0.
#1780000
b100011000 +
1!
1.
#1790000
0!
0.
#1800000
b100000000 +
b1100 2
1!
1.
#1810000
0!
0.
#1820000
b100000000 =
b100000000 A
b100000000 E
b100000000 I
b100000000 M
b100000000 Q
b100000000 U
b100000000 Y
b100000000 )
b100000000 8
1!
1.
#1830000
b100011110 ?
b1000000000000 C
b100011110 G
b1000000000000 K
b100011110 O
b1000000000000 S
b100011110 W
b1000000000000 [
b10000000000000000000100011110 "
b10000000000000000000100011110 9
b1000000000000 D
b100011110 @
0!
0.
#1840000
b10000000000000000000100011110 (
1!
1.
#1850000
0!
0.
#1860000
b100000010 +
1!
1.
#1870000
0!
0.
#1880000
b100011110 =
b100011110 A
b100011110 E
b100011110 I
b100011110 M
b100011110 Q
b100011110 U
b100011110 Y
b100011110 )
b100011110 8
1!
1.
#1890000
b1 ?
b111100000000000 C
b1 G
b111100000000000 K
b1 O
b111100000000000 S
b1 W
b111100000000000 [
b1111000000000000000000000000001 "
b1111000000000000000000000000001 9
b1 @
b111100000000000 D
0!
0.
#1900000
b1111000000000000000000000000001 *
1!
1.
#1910000
0!
0.
#1920000
b1111000000000000000000000000001 %
b1101 2
1!
1.
#1930000
0!
0.
#1940000
b100000010 =
b100000010 A
b100000010 E
b100000010 I
b100000010 M
b100000010 Q
b100000010 U
b100000010 Y
b100000010 )
b100000010 8
1!
1.
#1950000
b100100000 ?
b0 C
b100100000 G
b0 K
b100100000 O
b0 S
b100100000 W
b0 [
b100100000 "
b100100000 9
b0 D
b100100000 @
0!
0.
#1960000
b100100000 (
1!
1.
#1970000
0!
0.
#1980000
b100000100 +
1!
1.
#1990000
0!
0.
#2000000
b100100000 =
b100100000 A
b100100000 E
b100100000 I
b100100000 M
b100100000 Q
b100100000 U
b100100000 Y
b100100000 )
b100100000 8
1!
1.
#2010000
b1 ?
b1111000000000000 C
b1 G
b1111000000000000 K
b1 O
b1111000000000000 S
b1 W
b1111000000000000 [
b11110000000000000000000000000001 "
b11110000000000000000000000000001 9
b1 @
b1111000000000000 D
0!
0.
#2020000
b11110000000000000000000000000001 *
1!
1.
#2030000
0!
0.
#2040000
b1101000000000000000000000000010 #
b1101000000000000000000000000010 4
b1101000000000000000000000000010 7
b11110000000000000000000000000001 '
b11110000000000000000000000000001 6
b1111000000000000000000000000001 $
b1111000000000000000000000000001 3
b1 &
b1 5
1!
1.
#2050000
0!
0.
#2060000
b1101000000000000000000000000010 %
1!
1.
#2070000
0!
0.
#2080000
b11 1
1!
1.
#2081000
b1110 2
#2090000
0!
0.
#2100000
b100000100 =
b100000100 A
b100000100 E
b100000100 I
b100000100 M
b100000100 Q
b100000100 U
b100000100 Y
b100000100 )
b100000100 8
1!
1.
#2110000
b100011100 ?
b1100000000000 C
b100011100 G
b1100000000000 K
b100011100 O
b1100000000000 S
b100011100 W
b1100000000000 [
b11000000000000000000100011100 "
b11000000000000000000100011100 9
b1100000000000 D
b100011100 @
0!
0.
#2120000
b11000000000000000000100011100 (
1!
1.
#2130000
0!
0.
#2140000
b100000110 +
1!
1.
#2150000
0!
0.
#2160000
b100011100 =
b100011100 A
b100011100 E
b100011100 I
b100011100 M
b100011100 Q
b100011100 U
b100011100 Y
b100011100 )
b100011100 8
1!
1.
#2170000
b1 ?
b1111000000000000 C
b1 G
b1111000000000000 K
b1 O
b1111000000000000 S
b1 W
b1111000000000000 [
b11110000000000000000000000000001 "
b11110000000000000000000000000001 9
b1 @
b1111000000000000 D
0!
0.
#2180000
b1101000000000000000000000000010 *
1!
1.
#2190000
0!
0.
#2200000
b10 ?
b110100000000000 C
b10 G
b110100000000000 K
b10 O
b110100000000000 S
b10 W
b110100000000000 [
b1101000000000000000000000000010 "
b1101000000000000000000000000010 9
b1101000000000000000000000000010 /
0-
10
b1111 2
1!
1.
#2210000
0!
0.
#2220000
b1 ?
b1111000000000000 C
b1 G
b1111000000000000 K
b1 O
b1111000000000000 S
b1 W
b1111000000000000 [
b11110000000000000000000000000001 "
b11110000000000000000000000000001 9
b100000110 =
b100000110 A
b100000110 E
b100000110 I
b100000110 M
b100000110 Q
b100000110 U
b100000110 Y
1-
00
b100000110 )
b100000110 8
1!
1.
#2230000
b100100000 ?
b1000000000000 C
b100100000 G
b1000000000000 K
b100100000 O
b1000000000000 S
b100100000 W
b1000000000000 [
b10000000000000000000100100000 "
b10000000000000000000100100000 9
b1000000000000 D
b100100000 @
0!
0.
#2240000
b10000000000000000000100100000 (
1!
1.
#2250000
0!
0.
#2260000
b100001000 +
1!
1.
#2270000
0!
0.
#2280000
b100100000 =
b100100000 A
b100100000 E
b100100000 I
b100100000 M
b100100000 Q
b100100000 U
b100100000 Y
b100100000 )
b100100000 8
1!
1.
#2290000
b1 ?
b1111000000000000 C
b1 G
b1111000000000000 K
b1 O
b1111000000000000 S
b1 W
b1111000000000000 [
b11110000000000000000000000000001 "
b11110000000000000000000000000001 9
b1 @
b1111000000000000 D
0!
0.
#2300000
b11110000000000000000000000000001 *
1!
1.
#2310000
0!
0.
#2320000
b11110000000000000000000000000001 %
b10000 2
1!
1.
#2330000
0!
0.
#2340000
b100001000 =
b100001000 A
b100001000 E
b100001000 I
b100001000 M
b100001000 Q
b100001000 U
b100001000 Y
b100001000 )
b100001000 8
1!
1.
#2350000
b100011110 ?
b1100000000000 C
b100011110 G
b1100000000000 K
b100011110 O
b1100000000000 S
b100011110 W
b1100000000000 [
b11000000000000000000100011110 "
b11000000000000000000100011110 9
b1100000000000 D
b100011110 @
0!
0.
#2360000
b11000000000000000000100011110 (
1!
1.
#2370000
0!
0.
#2380000
b100001010 +
1!
1.
#2390000
0!
0.
